year,Pumpage,WaterServicePopulation,PPCpd
1995,39485284857,630997,171
1996,45818995265,649660,193
1997,42802218906,668876,175
1998,46668518691,688660,185
1999,46604542023,709029,180
2000,52326072111,738229,194
2001,50184846040,754470,182
2002,50883135913,767296,181
2003,51110853373,774969,180
2004,48468969212,786594,168
2005,51373931436,799966,175
2006,56602598743,824035,188
2007,45867662567,834647,150
2008,53066075799,853843,170
2009,53331329600,872628,167
2010,43827360000,875936,137
2011,52823662000,891997,162
2012,47094082000,907161,142
2013,45901736000,928026,135
2014,43239355300,951329,124
2015,43480893300,977491,121
2016,44661178166,1001440,122